hm-02
…
ℹ Use `spec()` to retrieve the full column specification for this data.
ℹ Specify the column types or set `show_col_types = FALSE` to quiet this message.

saudi_and_brazil <- dataset %>%
  filter(iso_code %in% c("SAU", "BRA")) %>%
  select(country, iso_code, year, gdp, population, gas_production, oil_production)
#  filter(country %in% c("Brazil", "saudia arabia", "Panama")) %>%
#  filter(country == "Brazil & Saudia Arabia" & year >= 1950)
#  filter(iso_code %in% c("SAU")) %>%
#  filter(iso_code %in% c("BRA")) %>%  
#  filter(year >= 1950) %>%
saudi_and_brazil

# A tibble: 244 × 7
   country iso_code  year         gdp population gas_production oil_production
   <chr>   <chr>    <dbl>       <dbl>      <dbl>          <dbl>          <dbl>
 1 Brazil  BRA       1900 15718016000   18063384              0              0
 2 Brazil  BRA       1901 17288480768   18469004              0              0
 3 Brazil  BRA       1902 17298221056   18874521              0              0
 4 Brazil  BRA       1903 17645600768   19279718              0              0
 5 Brazil  BRA       1904 17980866560   19693613              0              0
 6 Brazil  BRA       1905 18502774784   20116394              0              0
 7 Brazil  BRA       1906 20284010496   20548251              0              0
 8 Brazil  BRA       1907 20275920896   20989379              0              0
 9 Brazil  BRA       1908 20131334144   21439977              0              0
10 Brazil  BRA       1909 21732245504   21899583              0              0
# ℹ 234 more rows
…
filtered_column <- saudi_and_brazil |>
  filter(oil_production > 0)
filtered_column

# A tibble: 166 × 7
   country iso_code  year          gdp population gas_production oil_production
   <chr>   <chr>    <dbl>        <dbl>      <dbl>          <dbl>          <dbl>
 1 Brazil  BRA       1942  68221296640   43672675          0              0.047
 2 Brazil  BRA       1943  77735960576   44833224          0              0.07 
 3 Brazil  BRA       1944  80576684032   46024612          0              0.093
 4 Brazil  BRA       1945  82817277952   47247661          0              0.116
 5 Brazil  BRA       1946  91503345664   48503211          0.104          0.105
 6 Brazil  BRA       1947  94744731648   49792125          0.012          0.151
 7 Brazil  BRA       1948 103941000000   51115291          0.035          0.221
 8 Brazil  BRA       1949 111895000000   52508525          0.058          0.163
 9 Brazil  BRA       1950 119499000000   53955360          0.058          0.512
10 Brazil  BRA       1951 125335000000   55591060          0.093          1.05 
# ℹ 156 more rows
…
######################################################################
# The next EDA exercises will have us look at:
#   sqrt
#   log+1 
#   1/x (inverse)
#   x^2
#   x^3

# I'm re-adding the function for saudi_and_brazil so that I can toggle
# between displaying data for SAU and BRA.

saudi_and_brazil %>%
  filter(iso_code %in% c("SAU"))

# A tibble: 122 × 7
   country      iso_code  year   gdp population gas_production oil_production
   <chr>        <chr>    <dbl> <dbl>      <dbl>          <dbl>          <dbl>
 1 Saudi Arabia SAU       1900    NA    2138769              0              0
 2 Saudi Arabia SAU       1901    NA    2142066              0              0
 3 Saudi Arabia SAU       1902    NA    2147298              0              0
 4 Saudi Arabia SAU       1903    NA    2154462              0              0
 5 Saudi Arabia SAU       1904    NA    2161623              0              0
 6 Saudi Arabia SAU       1905    NA    2168782              0              0
 7 Saudi Arabia SAU       1906    NA    2175938              0              0
 8 Saudi Arabia SAU       1907    NA    2183091              0              0
 9 Saudi Arabia SAU       1908    NA    2190240              0              0
10 Saudi Arabia SAU       1909    NA    2198435              0              0
# ℹ 112 more rows

saudi_and_brazil

# A tibble: 244 × 7
   country iso_code  year         gdp population gas_production oil_production
   <chr>   <chr>    <dbl>       <dbl>      <dbl>          <dbl>          <dbl>
 1 Brazil  BRA       1900 15718016000   18063384              0              0
 2 Brazil  BRA       1901 17288480768   18469004              0              0
 3 Brazil  BRA       1902 17298221056   18874521              0              0
 4 Brazil  BRA       1903 17645600768   19279718              0              0
 5 Brazil  BRA       1904 17980866560   19693613              0              0
 6 Brazil  BRA       1905 18502774784   20116394              0              0
 7 Brazil  BRA       1906 20284010496   20548251              0              0
 8 Brazil  BRA       1907 20275920896   20989379              0              0
 9 Brazil  BRA       1908 20131334144   21439977              0              0
10 Brazil  BRA       1909 21732245504   21899583              0              0
# ℹ 234 more rows
…
